%YAML 1.1
%TAG !u! tag:unity3d.com,2011:
--- !u!1001 &1576382812758416379
PrefabInstance:
  m_ObjectHideFlags: 0
  serializedVersion: 2
  m_Modification:
    m_TransformParent: {fileID: 0}
    m_Modifications:
    - target: {fileID: 372419927460958743, guid: ec6c43698a8cfa4408679385f771abd4, type: 3}
      propertyPath: m_Mesh
      value: 
      objectReference: {fileID: 0}
    - target: {fileID: 640072526208415626, guid: ec6c43698a8cfa4408679385f771abd4, type: 3}
      propertyPath: m_Mesh
      value: 
      objectReference: {fileID: 0}
    - target: {fileID: 1176273018671016205, guid: ec6c43698a8cfa4408679385f771abd4, type: 3}
      propertyPath: m_Mesh
      value: 
      objectReference: {fileID: 0}
    - target: {fileID: 1576382812758049225, guid: ec6c43698a8cfa4408679385f771abd4, type: 3}
      propertyPath: m_RootOrder
      value: 0
      objectReference: {fileID: 0}
    - target: {fileID: 1576382812758049225, guid: ec6c43698a8cfa4408679385f771abd4, type: 3}
      propertyPath: m_LocalPosition.x
      value: 3.14
      objectReference: {fileID: 0}
    - target: {fileID: 1576382812758049225, guid: ec6c43698a8cfa4408679385f771abd4, type: 3}
      propertyPath: m_LocalPosition.y
      value: 0
      objectReference: {fileID: 0}
    - target: {fileID: 1576382812758049225, guid: ec6c43698a8cfa4408679385f771abd4, type: 3}
      propertyPath: m_LocalPosition.z
      value: 26.66
      objectReference: {fileID: 0}
    - target: {fileID: 1576382812758049225, guid: ec6c43698a8cfa4408679385f771abd4, type: 3}
      propertyPath: m_LocalRotation.w
      value: 1
      objectReference: {fileID: 0}
    - target: {fileID: 1576382812758049225, guid: ec6c43698a8cfa4408679385f771abd4, type: 3}
      propertyPath: m_LocalRotation.x
      value: 0
      objectReference: {fileID: 0}
    - target: {fileID: 1576382812758049225, guid: ec6c43698a8cfa4408679385f771abd4, type: 3}
      propertyPath: m_LocalRotation.y
      value: 0
      objectReference: {fileID: 0}
    - target: {fileID: 1576382812758049225, guid: ec6c43698a8cfa4408679385f771abd4, type: 3}
      propertyPath: m_LocalRotation.z
      value: 0
      objectReference: {fileID: 0}
    - target: {fileID: 1576382812758049225, guid: ec6c43698a8cfa4408679385f771abd4, type: 3}
      propertyPath: m_LocalEulerAnglesHint.x
      value: 0
      objectReference: {fileID: 0}
    - target: {fileID: 1576382812758049225, guid: ec6c43698a8cfa4408679385f771abd4, type: 3}
      propertyPath: m_LocalEulerAnglesHint.y
      value: 0
      objectReference: {fileID: 0}
    - target: {fileID: 1576382812758049225, guid: ec6c43698a8cfa4408679385f771abd4, type: 3}
      propertyPath: m_LocalEulerAnglesHint.z
      value: 0
      objectReference: {fileID: 0}
    - target: {fileID: 1576382812758300199, guid: ec6c43698a8cfa4408679385f771abd4, type: 3}
      propertyPath: m_Name
      value: block2
      objectReference: {fileID: 0}
    - target: {fileID: 1576382812771396037, guid: ec6c43698a8cfa4408679385f771abd4, type: 3}
      propertyPath: m_LODs.Array.data[0].renderers.Array.data[0].renderer
      value: 
      objectReference: {fileID: 0}
    - target: {fileID: 1576382812771454591, guid: ec6c43698a8cfa4408679385f771abd4, type: 3}
      propertyPath: m_LODs.Array.data[0].renderers.Array.data[0].renderer
      value: 
      objectReference: {fileID: 0}
    - target: {fileID: 1576382812771454591, guid: ec6c43698a8cfa4408679385f771abd4, type: 3}
      propertyPath: m_LODs.Array.data[1].renderers.Array.data[0].renderer
      value: 
      objectReference: {fileID: 0}
    - target: {fileID: 1576382812771457311, guid: ec6c43698a8cfa4408679385f771abd4, type: 3}
      propertyPath: m_LODs.Array.data[0].renderers.Array.data[0].renderer
      value: 
      objectReference: {fileID: 0}
    - target: {fileID: 1576382812771457311, guid: ec6c43698a8cfa4408679385f771abd4, type: 3}
      propertyPath: m_LODs.Array.data[1].renderers.Array.data[0].renderer
      value: 
      objectReference: {fileID: 0}
    - target: {fileID: 1576382812771470783, guid: ec6c43698a8cfa4408679385f771abd4, type: 3}
      propertyPath: m_LODs.Array.data[0].renderers.Array.data[0].renderer
      value: 
      objectReference: {fileID: 0}
    - target: {fileID: 1576382812771470783, guid: ec6c43698a8cfa4408679385f771abd4, type: 3}
      propertyPath: m_LODs.Array.data[1].renderers.Array.data[0].renderer
      value: 
      objectReference: {fileID: 0}
    - target: {fileID: 1576382812771484649, guid: ec6c43698a8cfa4408679385f771abd4, type: 3}
      propertyPath: m_LODs.Array.data[0].renderers.Array.data[0].renderer
      value: 
      objectReference: {fileID: 0}
    - target: {fileID: 1576382812771484649, guid: ec6c43698a8cfa4408679385f771abd4, type: 3}
      propertyPath: m_LODs.Array.data[1].renderers.Array.data[0].renderer
      value: 
      objectReference: {fileID: 0}
    - target: {fileID: 1576382812771488705, guid: ec6c43698a8cfa4408679385f771abd4, type: 3}
      propertyPath: m_LODs.Array.data[0].renderers.Array.data[0].renderer
      value: 
      objectReference: {fileID: 0}
    - target: {fileID: 1576382812771488705, guid: ec6c43698a8cfa4408679385f771abd4, type: 3}
      propertyPath: m_LODs.Array.data[1].renderers.Array.data[0].renderer
      value: 
      objectReference: {fileID: 0}
    - target: {fileID: 1576382812771492879, guid: ec6c43698a8cfa4408679385f771abd4, type: 3}
      propertyPath: m_LODs.Array.data[0].renderers.Array.data[0].renderer
      value: 
      objectReference: {fileID: 0}
    - target: {fileID: 1576382812771492879, guid: ec6c43698a8cfa4408679385f771abd4, type: 3}
      propertyPath: m_LODs.Array.data[1].renderers.Array.data[0].renderer
      value: 
      objectReference: {fileID: 0}
    - target: {fileID: 1576382812771499323, guid: ec6c43698a8cfa4408679385f771abd4, type: 3}
      propertyPath: m_LODs.Array.data[0].renderers.Array.data[0].renderer
      value: 
      objectReference: {fileID: 0}
    - target: {fileID: 1576382812771499323, guid: ec6c43698a8cfa4408679385f771abd4, type: 3}
      propertyPath: m_LODs.Array.data[1].renderers.Array.data[0].renderer
      value: 
      objectReference: {fileID: 0}
    - target: {fileID: 1576382812771570939, guid: ec6c43698a8cfa4408679385f771abd4, type: 3}
      propertyPath: m_LODs.Array.data[0].renderers.Array.data[0].renderer
      value: 
      objectReference: {fileID: 0}
    - target: {fileID: 1576382812771570939, guid: ec6c43698a8cfa4408679385f771abd4, type: 3}
      propertyPath: m_LODs.Array.data[1].renderers.Array.data[0].renderer
      value: 
      objectReference: {fileID: 0}
    - target: {fileID: 1815176475128497161, guid: ec6c43698a8cfa4408679385f771abd4, type: 3}
      propertyPath: m_Mesh
      value: 
      objectReference: {fileID: 0}
    - target: {fileID: 2633992781803376857, guid: ec6c43698a8cfa4408679385f771abd4, type: 3}
      propertyPath: m_Mesh
      value: 
      objectReference: {fileID: 0}
    - target: {fileID: 3002563430207028023, guid: ec6c43698a8cfa4408679385f771abd4, type: 3}
      propertyPath: m_Mesh
      value: 
      objectReference: {fileID: 0}
    - target: {fileID: 3006835963128069068, guid: ec6c43698a8cfa4408679385f771abd4, type: 3}
      propertyPath: m_Mesh
      value: 
      objectReference: {fileID: 0}
    - target: {fileID: 3874798070301914818, guid: ec6c43698a8cfa4408679385f771abd4, type: 3}
      propertyPath: m_Mesh
      value: 
      objectReference: {fileID: 0}
    - target: {fileID: 4201565448530005476, guid: ec6c43698a8cfa4408679385f771abd4, type: 3}
      propertyPath: m_Mesh
      value: 
      objectReference: {fileID: 0}
    - target: {fileID: 4468288311752197803, guid: ec6c43698a8cfa4408679385f771abd4, type: 3}
      propertyPath: m_Mesh
      value: 
      objectReference: {fileID: 0}
    - target: {fileID: 4836638491144078399, guid: ec6c43698a8cfa4408679385f771abd4, type: 3}
      propertyPath: m_Mesh
      value: 
      objectReference: {fileID: 0}
    - target: {fileID: 6062709769015202585, guid: ec6c43698a8cfa4408679385f771abd4, type: 3}
      propertyPath: m_Mesh
      value: 
      objectReference: {fileID: 0}
    - target: {fileID: 7232195888130846143, guid: ec6c43698a8cfa4408679385f771abd4, type: 3}
      propertyPath: m_Mesh
      value: 
      objectReference: {fileID: 0}
    - target: {fileID: 7370506240970487554, guid: ec6c43698a8cfa4408679385f771abd4, type: 3}
      propertyPath: m_Mesh
      value: 
      objectReference: {fileID: 0}
    - target: {fileID: 7484449790558141692, guid: ec6c43698a8cfa4408679385f771abd4, type: 3}
      propertyPath: m_Mesh
      value: 
      objectReference: {fileID: 0}
    - target: {fileID: 7655162979133816577, guid: ec6c43698a8cfa4408679385f771abd4, type: 3}
      propertyPath: m_Mesh
      value: 
      objectReference: {fileID: 0}
    - target: {fileID: 7994029988305875928, guid: ec6c43698a8cfa4408679385f771abd4, type: 3}
      propertyPath: m_Mesh
      value: 
      objectReference: {fileID: 0}
    - target: {fileID: 8548954243941951956, guid: ec6c43698a8cfa4408679385f771abd4, type: 3}
      propertyPath: m_Mesh
      value: 
      objectReference: {fileID: 0}
    m_RemovedComponents: []
  m_SourcePrefab: {fileID: 100100000, guid: ec6c43698a8cfa4408679385f771abd4, type: 3}
