%YAML 1.1
%TAG !u! tag:unity3d.com,2011:
--- !u!78 &1
TagManager:
  serializedVersion: 2
  tags:
  - Ground
  - Gate
  - NotShattered
  layers:
  - Default
  - TransparentFX
  - Ignore Raycast
  - Rocket
  - Water
  - UI
  - 
  - 
  - 
  - 
  - 
  - 
  - 
  - 
  - 
  - 
  - 
  - 
  - 
  - 
  - 
  - 
  - 
  - 
  - 
  - 
  - 
  - 
  - 
  - 
  - 
  - 
  m_SortingLayers:
  - name: Default
    uniqueID: 0
    locked: 0
  - name: Layer1
    uniqueID: 2668139427
    locked: 0
  - name: Layer2
    uniqueID: 1981088875
    locked: 0
